[
  {
    "location": [
      [0, 1],
      [1, 1],
      [1, 0]
    ],
    "timeStamps": ["2022-12-12", "2022-12-13"]
  },
  {
    "location": [
      [1, 1, 1],
      [0, 1, 0]
    ],
    "timeStamps": []
  },
  {
    "location": [
      [1, 1],
      [0, 1],
      [0, 1]
    ],
    "timeStamps": ["2022-12-13", "2022-12-14"]
  },
  {
    "location": [
      [1, 1],
      [1, 0],
      [1, 0]
    ],
    "timeStamps": ["2022-12-14"]
  },
  {
    "location": [
      [1, 1],
      [1, 1]
    ],
    "timeStamps":  ["2022-12-15", "2022-12-16"]
  },
  {
    "location": [
      [1, 0],
      [1, 1],
      [0, 1]
    ],
    "timeStamps": ["2022-12-15"]
  },
  {
    "location": [
      [1, 0],
      [1, 1],
      [1, 0]
    ],
    "timeStamps": []
  },
  {
    "location": [
      [1, 1],
      [1, 1]
    ],
    "timeStamps": ["2022-12-12"]
  },
  {
    "location": [
      [0, 1],
      [1, 1],
      [0, 1]
    ],
    "timeStamps": []
  },
  {
    "location": [
      [1, 0],
      [1, 0],
      [1, 1]
    ],
    "timeStamps": []
  },
  {
    "location": [
      [1, 0],
      [1, 1],
      [0, 1]
    ],
    "timeStamps": []
  },
  {
    "location": [
      [0, 1],
      [0, 1],
      [1, 1]
    ],
    "timeStamps": []
  },
  {
    "location": [
      [0, 1, 1],
      [1, 1, 0]
    ],
    "timeStamps": []
  },
  {
    "location": [
      [1, 1, 1],
      [0, 1, 0]
    ],
    "timeStamps": []
  },
  {
    "location": [
      [1, 1, 1],
      [1, 0, 0]
    ],
    "timeStamps": []
  },
  {
    "location": [
      [1, 0, 0],
      [1, 1, 1]
    ],
    "timeStamps": []
  },
  {
    "location": [
      [0, 1, 0],
      [1, 1, 1]
    ],
    "timeStamps": ["2022-12-12"]
  },
  {
    "location": [
      [0, 0, 1],
      [1, 1, 1]
    ],
    "timeStamps": ["2022-12-13"]
  }
]
