[
    {
        "id": 1,
        "name": "Black Mesa",
        "logo": "bms"
    },
    {
        "id": 12,
        "name": "Minecraft",
        "logo": "mc"
    },
    {
        "id": 31,
        "name": "CS: GO",
        "logo": "csgo"
    },
    {
        "id": 43,
        "name": "Left 4 Dead",
        "logo": "l4d"
    }
]