{
  "prices": [
    {
      "id": "1",
      "name": "Бесконтактная мойка",
      "price": "459"
    },
    {
      "id": "2",
      "name": "Наномойка",
      "price": "759"
    },
    {
      "id": "3",
      "name": "Мойка люкс",
      "price": "1559"
    },
    {
      "id": "4",
      "name": "Комплексная мойка",
      "price": "859"
    },
    {
      "id": "5",
      "name": "Комплексная наномойка",
      "price": "11559"
    },
    {
      "id": "6",
      "name": "Антиреагент",
      "price": "1400"
    },
    {
      "id": "7",
      "name": "Антиреагент комплекс",
      "price": "1800"
    },
    {
      "id": "8",
      "name": "Экспресс-мойка",
      "price": "250"
    },
    {
      "id": "9",
      "name": "Пылесос",
      "price": "250"
    },
    {
      "id": "10",
      "name": "Стекла",
      "price": "250"
    },
    {
      "id": "11",
      "name": "Полироль пластика",
      "price": "250"
    }
  ]
}