{
    "success": true,
    "items": [
        {
            "id": "101",
            "model": "model M",
            "price_usual": "$9",
            "price_discounted": "$4.99",
            "picture": "https://dg-home.ru/pic/234417/taburet_tronco_kollektsiia_tronko__4__big.jpg",
            "tags": ["for_children", "ikea", "yellow", "spruce"]
        },
        {
            "id": "1337",
            "model": "model H",
            "price_usual": "$1",
            "price_discounted": "$0.01",
            "picture": "https://media.istockphoto.com/photos/old-broken-chair-picture-id157336134",
            "tags": ["for_children", "ikea", "multi_color", "spruce"]
        }
    ]
}
